How to use this package
…
Country codes

If you don’t know a certain country code you can explore this data before using the functions.

ots_attributes_countries
#> # A tibble: 249 x 6
#>    country_iso country_name_en… country_fullnam… continent_id continent
#>    <chr>       <chr>            <chr>                   <int> <chr>    
#>  1 afg         Afghanistan      Afghanistan                 1 Asia     
#>  2 alb         Albania          Albania                     2 Europe   
#>  3 dza         Algeria          Algeria                     3 Africa   
#>  4 asm         American Samoa   American Samoa              4 Oceania  
#>  5 and         Andorra          Andorra                     2 Europe   
#>  6 ago         Angola           Angola                      3 Africa   
#>  7 aia         Anguilla         Anguilla                    5 Americas 
#>  8 atg         Antigua and Bar… Antigua and Bar…            5 Americas 
#>  9 arg         Argentina        Argentina                   5 Americas 
#> 10 arm         Armenia          Armenia                     1 Asia     
#> # … with 239 more rows, and 1 more variable: eu28_member <int>

Product codes

Open Trade Statistics (aka OTS) uses data classified under either HS92, HS96, HS02 and HS07 (Harmonized System) and SITC rev. 1 and rev. 2 (Standard International Trade Classification). A part of our project is to combine all of this under HS07 codes, and to make it available for the period 1962-2016 even for the years before 2007 when HS07 was not in use.

As UN Comtrade explains both HS and SITC are trade classifications that are updated by releasing new revisions, and when a classification is released then it remains unaltered. For example, HS92 was released in 1992 and its product codes remain unaltered until today, while newer classifications (e.g. HS07) were created to include newer products (e.g. it was important to provide more details about electronic products that did not exist when HS92 was created).

Each of these classifications consists in numeric codes and a detailed product name associated to each code, for example HS92 (and all HS revisions) contain 4 and 6 digits long codes while SITC does only contain 4 digits long codes in our cleaned datasets (there are 5 digits long SITC codes that we are not using):

ots_attributes_countries
#> # A tibble: 249 x 6
#>    country_iso country_name_en… country_fullnam… continent_id continent
#>    <chr>       <chr>            <chr>                   <int> <chr>    
#>  1 afg         Afghanistan      Afghanistan                 1 Asia     
#>  2 alb         Albania          Albania                     2 Europe   
#>  3 dza         Algeria          Algeria                     3 Africa   
#>  4 asm         American Samoa   American Samoa              4 Oceania  
#>  5 and         Andorra          Andorra                     2 Europe   
#>  6 ago         Angola           Angola                      3 Africa   
#>  7 aia         Anguilla         Anguilla                    5 Americas 
#>  8 atg         Antigua and Bar… Antigua and Bar…            5 Americas 
#>  9 arg         Argentina        Argentina                   5 Americas 
#> 10 arm         Armenia          Armenia                     1 Asia     
#> # … with 239 more rows, and 1 more variable: eu28_member <int>
…
Product code

The end user can use this function to find a commodity code by providing a product name. This works by implementing partial search.

ots_product_code("wine")
#> # A tibble: 58 x 5
#>    commodity_code commodity_fullname_e… group_code group_name  type_product
#>    <chr>          <chr>                 <chr>      <chr>       <chr>       
#>  1 0103           Swine; live           01         Animals; l… wine        
#>  2 010310         Swine; live, pure-br… 01         Animals; l… wine        
#>  3 010391         Swine; live, (other … 01         Animals; l… wine        
#>  4 010392         Swine; live, (other … 01         Animals; l… wine        
#>  5 0203           Meat of swine; fresh… 02         Meat and e… wine        
#>  6 020311         Meat; of swine, carc… 02         Meat and e… wine        
#>  7 020312         Meat; of swine, hams… 02         Meat and e… wine        
#>  8 020319         Meat; of swine, n.e.… 02         Meat and e… wine        
#>  9 020321         Meat; of swine, carc… 02         Meat and e… wine        
#> 10 020322         Meat; of swine, hams… 02         Meat and e… wine        
#> # … with 48 more rows

Trade data

This function downloads data for a single year and needs (at least) some filter parameters according to the query type.

Bilateral trade at commodity level (Year - Reporter - Partner - Commodity)

If we want Chile-Argentina bilateral trade at commodity level in 1980:

# What does Chile exchange with Argentina? (1980)
ots_create_tidy_data(years = 1980, reporter = "chl", partner = "arg")
#> # A tibble: 580 x 20
#>     year reporter_iso partner_iso reporter_fullna… partner_fullnam…
#>    <int> <chr>        <chr>       <chr>            <chr>           
#>  1  1980 chl          arg         Chile            Argentina       
#>  2  1980 chl          arg         Chile            Argentina       
#>  3  1980 chl          arg         Chile            Argentina       
#>  4  1980 chl          arg         Chile            Argentina       
#>  5  1980 chl          arg         Chile            Argentina       
#>  6  1980 chl          arg         Chile            Argentina       
#>  7  1980 chl          arg         Chile            Argentina       
#>  8  1980 chl          arg         Chile            Argentina       
#>  9  1980 chl          arg         Chile            Argentina       
#> 10  1980 chl          arg         Chile            Argentina       
#> # … with 570 more rows, and 15 more variables: commodity_code <chr>,
#> #   commodity_code_length <int>, commodity_fullname_english <chr>,
#> #   group_code <chr>, group_name <chr>, import_value_usd <int>,
#> #   import_value_usd_change_1_year <int>,
#> #   import_value_usd_change_5_years <int>,
#> #   import_value_usd_percentage_change_1_year <dbl>,
#> #   import_value_usd_percentage_change_5_years <dbl>,
#> #   export_value_usd <int>, export_value_usd_change_1_year <int>,
#> #   export_value_usd_percentage_change_1_year <dbl>,
#> #   export_value_usd_change_5_years <int>,
#> #   export_value_usd_percentage_change_5_years <dbl>

Which is the same as:

ots_create_tidy_data(years = 1980, reporter = "chl", partner = "arg", table = "yrpc")
#> # A tibble: 580 x 20
#>     year reporter_iso partner_iso reporter_fullna… partner_fullnam…
#>    <int> <chr>        <chr>       <chr>            <chr>           
#>  1  1980 chl          arg         Chile            Argentina       
#>  2  1980 chl          arg         Chile            Argentina       
#>  3  1980 chl          arg         Chile            Argentina       
#>  4  1980 chl          arg         Chile            Argentina       
#>  5  1980 chl          arg         Chile            Argentina       
#>  6  1980 chl          arg         Chile            Argentina       
#>  7  1980 chl          arg         Chile            Argentina       
#>  8  1980 chl          arg         Chile            Argentina       
#>  9  1980 chl          arg         Chile            Argentina       
#> 10  1980 chl          arg         Chile            Argentina       
#> # … with 570 more rows, and 15 more variables: commodity_code <chr>,
#> #   commodity_code_length <int>, commodity_fullname_english <chr>,
#> #   group_code <chr>, group_name <chr>, import_value_usd <int>,
#> #   import_value_usd_change_1_year <int>,
#> #   import_value_usd_change_5_years <int>,
#> #   import_value_usd_percentage_change_1_year <dbl>,
#> #   import_value_usd_percentage_change_5_years <dbl>,
#> #   export_value_usd <int>, export_value_usd_change_1_year <int>,
#> #   export_value_usd_percentage_change_1_year <dbl>,
#> #   export_value_usd_change_5_years <int>,
#> #   export_value_usd_percentage_change_5_years <dbl>

If we want Chile-Argentina bilateral trade at commodity level in 1980-1985:

# What does Chile exchange with Argentina? (1980-1985)
ots_create_tidy_data(years = 1980:1985, reporter = "chl", partner = "arg")
#> # A tibble: 3,470 x 20
#>     year reporter_iso partner_iso reporter_fullna… partner_fullnam…
#>    <int> <chr>        <chr>       <chr>            <chr>           
#>  1  1980 chl          arg         Chile            Argentina       
#>  2  1980 chl          arg         Chile            Argentina       
#>  3  1980 chl          arg         Chile            Argentina       
#>  4  1980 chl          arg         Chile            Argentina       
#>  5  1980 chl          arg         Chile            Argentina       
#>  6  1980 chl          arg         Chile            Argentina       
#>  7  1980 chl          arg         Chile            Argentina       
#>  8  1980 chl          arg         Chile            Argentina       
#>  9  1980 chl          arg         Chile            Argentina       
#> 10  1980 chl          arg         Chile            Argentina       
#> # … with 3,460 more rows, and 15 more variables: commodity_code <chr>,
#> #   commodity_code_length <int>, commodity_fullname_english <chr>,
#> #   group_code <chr>, group_name <chr>, import_value_usd <int>,
#> #   import_value_usd_change_1_year <int>,
#> #   import_value_usd_change_5_years <int>,
#> #   import_value_usd_percentage_change_1_year <dbl>,
#> #   import_value_usd_percentage_change_5_years <dbl>,
#> #   export_value_usd <int>, export_value_usd_change_1_year <int>,
#> #   export_value_usd_percentage_change_1_year <dbl>,
#> #   export_value_usd_change_5_years <int>,
#> #   export_value_usd_percentage_change_5_years <dbl>

If we want Chile-Argentina bilateral trade at commodity level in 1980, 1995 and 2007:

# What does Chile exchange with Argentina? (1980-1985)
ots_create_tidy_data(years = c(1980,1995,2007), reporter = "chl", partner = "arg")
#> # A tibble: 2,617 x 20
#>     year reporter_iso partner_iso reporter_fullna… partner_fullnam…
#>    <int> <chr>        <chr>       <chr>            <chr>           
#>  1  1980 chl          arg         Chile            Argentina       
#>  2  1980 chl          arg         Chile            Argentina       
#>  3  1980 chl          arg         Chile            Argentina       
#>  4  1980 chl          arg         Chile            Argentina       
#>  5  1980 chl          arg         Chile            Argentina       
#>  6  1980 chl          arg         Chile            Argentina       
#>  7  1980 chl          arg         Chile            Argentina       
#>  8  1980 chl          arg         Chile            Argentina       
#>  9  1980 chl          arg         Chile            Argentina       
#> 10  1980 chl          arg         Chile            Argentina       
#> # … with 2,607 more rows, and 15 more variables: commodity_code <chr>,
#> #   commodity_code_length <int>, commodity_fullname_english <chr>,
#> #   group_code <chr>, group_name <chr>, import_value_usd <int>,
#> #   import_value_usd_change_1_year <int>,
#> #   import_value_usd_change_5_years <int>,
#> #   import_value_usd_percentage_change_1_year <dbl>,
#> #   import_value_usd_percentage_change_5_years <dbl>,
#> #   export_value_usd <int>, export_value_usd_change_1_year <int>,
#> #   export_value_usd_percentage_change_1_year <dbl>,
…
Reporter trade at commodity level (Year - Reporter - Commodity)

If we want Chilean trade at commodity level in 1980:

# What does Chile exchange? (1980)
ots_create_tidy_data(years = 1980, reporter = "chl", table = "yrc")
#> # A tibble: 1,072 x 20
#>     year reporter_iso reporter_fullna… commodity_code commodity_code_…
#>    <int> <chr>        <chr>            <chr>                     <int>
#>  1  1980 chl          Chile            0101                          4
#>  2  1980 chl          Chile            0102                          4
#>  3  1980 chl          Chile            0103                          4
#>  4  1980 chl          Chile            0104                          4
#>  5  1980 chl          Chile            0105                          4
#>  6  1980 chl          Chile            0106                          4
#>  7  1980 chl          Chile            0201                          4
#>  8  1980 chl          Chile            0203                          4
#>  9  1980 chl          Chile            0204                          4
#> 10  1980 chl          Chile            0205                          4
#> # … with 1,062 more rows, and 15 more variables:
#> #   commodity_fullname_english <chr>, group_code <chr>, group_name <chr>,
#> #   export_value_usd <int>, import_value_usd <int>,
#> #   export_rca_4_digits_commodity_code <dbl>,
#> #   import_rca_4_digits_commodity_code <dbl>,
#> #   export_value_usd_change_1_year <int>,
#> #   export_value_usd_change_5_years <int>,
#> #   export_value_usd_percentage_change_1_year <dbl>,
#> #   export_value_usd_percentage_change_5_years <dbl>,
…
Here some fields deserve an explanation:

eci_4_digits_commodity_code: Economic Complexity Index (ECI) which is detailed on Open Trade Statistics Documentation. This index is built by using just four digits commodity codes.

eci_rank_4_digits_commodity_code: The rank of a country given its ECI (e.g. the highest ECI obtains the #1)

eci_rank_4_digits_commodity_code_delta_1_year: How many places a country increased or decreased with respect to last year

Commodity trade at aggregated level (Year - Commodity)

If we want all products trade in 1980:

# Which products are exchanged? (1980)
ots_create_tidy_data(years = 1980, table = "yc")
#> # A tibble: 1,106 x 24
#>     year commodity_code commodity_code_… commodity_fulln… group_code
#>    <int> <chr>                     <int> <chr>            <chr>     
#>  1  1980 0101                          4 Horses, asses, … 01        
#>  2  1980 0102                          4 Bovine animals;… 01        
#>  3  1980 0103                          4 Swine; live      01        
#>  4  1980 0104                          4 Sheep and goats… 01        
#>  5  1980 0105                          4 Poultry; live, … 01        
#>  6  1980 0106                          4 Animals, n.e.c.… 01        
#>  7  1980 0201                          4 Meat of bovine … 02        
#>  8  1980 0203                          4 Meat of swine; … 02        
#>  9  1980 0204                          4 Meat of sheep o… 02        
#> 10  1980 0205                          4 Meat of horses,… 02        
#> # … with 1,096 more rows, and 19 more variables: group_name <chr>,
#> #   export_value_usd <dbl>, import_value_usd <dbl>,
#> #   pci_4_digits_commodity_code <dbl>,
#> #   pci_rank_4_digits_commodity_code <int>,
#> #   pci_rank_4_digits_commodity_code_delta_1_year <int>,
#> #   pci_rank_4_digits_commodity_code_delta_5_years <int>,
#> #   top_exporter_iso <chr>, top_exporter_trade_value_usd <dbl>,
#> #   top_importer_iso <chr>, top_importer_trade_value_usd <dbl>,
#> #   export_value_usd_change_1_year <dbl>,
…
