How to use this package • tradestatistics
…
The less aggregated table is yrpc which says how many dollars of each of the 1,222 products from the Harmonized System each country exports to other countries and imports from other countries.

g and s are aggregations over c, therefore yrpc-sa (yrpc with section aggregation) and yrpc-ga (yrpc with group aggregation) are summaries of yrpc.

For the complete detail you can check docs.tradestatistics.io.

Country codes

The Package Functions section explains that you don’t need to memorize all ISO codes. The functions within this package are designed to match strings (i.e. “United States” or “America”) to valid ISO codes (i.e. “USA”).

Just as a reference, the table with all valid ISO codes can be accessed by running this:

ots_countries
#> # A tibble: 249 x 6
#>    country_iso country_name_en… country_fullnam… continent_id continent
#>    <chr>       <chr>            <chr>                   <int> <chr>    
#>  1 afg         Afghanistan      Afghanistan                 1 Asia     
#>  2 alb         Albania          Albania                     2 Europe   
#>  3 dza         Algeria          Algeria                     3 Africa   
#>  4 asm         American Samoa   American Samoa              4 Oceania  
#>  5 and         Andorra          Andorra                     2 Europe   
#>  6 ago         Angola           Angola                      3 Africa   
#>  7 aia         Anguilla         Anguilla                    5 Americas 
#>  8 atg         Antigua and Bar… Antigua and Bar…            5 Americas 
#>  9 arg         Argentina        Argentina                   5 Americas 
#> 10 arm         Armenia          Armenia                     1 Asia     
#> # … with 239 more rows, and 1 more variable: eu28_member <int>

Product codes and communities

The Package Functions section explains that you don’t need to memorize all HS codes. The functions within this package are designed to match strings (i.e. “apple”) to valid HS codes (i.e. “0808”).

ots_products
#> # A tibble: 1,320 x 2
#>    product_code product_fullname_english                                        
#>    <chr>        <chr>                                                           
#>  1 0101         Horses, asses, mules and hinnies; live                          
#>  2 0102         Bovine animals; live                                            
#>  3 0103         Swine; live                                                     
#>  4 0104         Sheep and goats; live                                           
#>  5 0105         Poultry; live, fowls of the species Gallus domesticus, ducks, g…
#>  6 0106         Animals, n.e.c. in chapter 01; live                             
#>  7 0201         Meat of bovine animals; fresh or chilled                        
#>  8 0202         Meat of bovine animals; frozen                                  
#>  9 0203         Meat of swine; fresh, chilled or frozen                         
#> 10 0204         Meat of sheep or goats; fresh, chilled or frozen                
#> # … with 1,310 more rows

ots_product_shortnames
#> # A tibble: 1,222 x 2
#>    product_code product_shortname_english
#>    <chr>        <chr>                    
#>  1 0101         Horses                   
#>  2 0102         Bovine                   
#>  3 0103         Pigs                     
#>  4 0104         Sheep and Goats          
#>  5 0105         Poultry                  
#>  6 0106         Other Animals            
#>  7 0201         Bovine Meat              
#>  8 0202         Frozen Bovine Meat       
#>  9 0203         Pig Meat                 
#> 10 0204         Sheep and Goat Meat      
#> # … with 1,212 more rows

ots_sections
#> # A tibble: 1,222 x 2
#>    product_code section_code
#>    <chr>        <chr>       
#>  1 0101         01          
#>  2 0102         01          
#>  3 0103         01          
#>  4 0104         01          
#>  5 0105         01          
#>  6 0106         01          
#>  7 0201         01          
#>  8 0202         01          
#>  9 0203         01          
#> 10 0204         01          
#> # … with 1,212 more rows

ots_sections_shortnames
#> # A tibble: 22 x 2
#>    section_code section_shortname_english       
#>    <chr>        <chr>                           
#>  1 01           Animal Products                 
#>  2 02           Vegetable Products              
#>  3 03           Animal and Vegetable Bi-Products
#>  4 04           Foodstuffs                      
#>  5 05           Mineral Products                
#>  6 06           Chemical Products               
#>  7 07           Plastics and Rubbers            
#>  8 08           Animal Hides                    
#>  9 09           Wood Products                   
#> 10 10           Paper Goods                     
#> # … with 12 more rows

Inflation data

This table is provided to be used with ots_inflation_adjustment().

ots_inflation
#> # A tibble: 56 x 3
#>     from    to conversion_factor
#>    <int> <int>             <dbl>
#>  1  1962  1963              1.03
#>  2  1963  1964              1.03
#>  3  1964  1965              1.04
#>  4  1965  1966              1.05
#>  5  1966  1967              1.04
#>  6  1967  1968              1.04
#>  7  1968  1969              1.04
#>  8  1969  1970              1.05
#>  9  1970  1971              1.05
#> 10  1971  1972              1.06
#> # … with 46 more rows
…
This function searches both products and groups:

ots_product_code(productname = " ShEEp ", productgroup = " mEaT ")
#> # A tibble: 2 x 6
#>   product_code product_fullnam… group_code group_fullname_… type_name type_group
#>   <chr>        <chr>            <chr>      <chr>            <chr>     <chr>     
#> 1 0204         Meat of sheep o… 02         Meat and edible… ShEEp     mEaT      
#> 2 0206         Edible offal of… 02         Meat and edible… ShEEp     mEaT

Section code

The end user can use this function to find a community code by providing a community name. This works by implementing partial string matching:

ots_product_section(" tExTiLeS ")
#> # A tibble: 152 x 4
#>    product_code section_code section_fullname_english      type_section
#>    <chr>        <chr>        <chr>                         <chr>       
#>  1 5111         11           Textiles And Textile Articles tExTiLeS    
#>  2 5001         11           Textiles And Textile Articles tExTiLeS    
#>  3 5002         11           Textiles And Textile Articles tExTiLeS    
#>  4 5003         11           Textiles And Textile Articles tExTiLeS    
#>  5 5004         11           Textiles And Textile Articles tExTiLeS    
#>  6 5005         11           Textiles And Textile Articles tExTiLeS    
#>  7 5006         11           Textiles And Textile Articles tExTiLeS    
#>  8 5007         11           Textiles And Textile Articles tExTiLeS    
#>  9 5101         11           Textiles And Textile Articles tExTiLeS    
#> 10 5102         11           Textiles And Textile Articles tExTiLeS    
#> # … with 142 more rows
…
This function downloads data for a single year and needs (at least) some filter parameters according to the query type.

Here we cover aggregated tables to describe the usage.

Bilateral trade at product level (Year - Reporter - Partner - Product Code)

If we want Chile-Argentina bilateral trade at community level in 1962:

ots_create_tidy_data(
  years = 1962,
  reporters = "chl",
  partners = "arg",
  table = "yrpc"
)
#> # A tibble: 266 x 16
#>     year reporter_iso reporter_fullna… partner_iso partner_fullnam… section_code
#>    <int> <chr>        <chr>            <chr>       <chr>            <chr>       
#>  1  1962 chl          Chile            arg         Argentina        21          
#>  2  1962 chl          Chile            arg         Argentina        20          
#>  3  1962 chl          Chile            arg         Argentina        20          
#>  4  1962 chl          Chile            arg         Argentina        20          
#>  5  1962 chl          Chile            arg         Argentina        20          
#>  6  1962 chl          Chile            arg         Argentina        20          
#>  7  1962 chl          Chile            arg         Argentina        20          
#>  8  1962 chl          Chile            arg         Argentina        20          
#>  9  1962 chl          Chile            arg         Argentina        20          
#> 10  1962 chl          Chile            arg         Argentina        19          
#> # … with 256 more rows, and 10 more variables: section_fullname_english <chr>,
#> #   section_shortname_english <chr>, section_color <chr>, group_code <chr>,
#> #   group_fullname_english <chr>, product_code <chr>,
#> #   product_fullname_english <chr>, product_shortname_english <chr>,
#> #   import_value_usd <int>, export_value_usd <int>

We can pass two years or more, several reporters/partners, and filter by community with exact codes or code matching based on keywords:

# Note that here I'm passing Peru and not per which is the ISO code for Peru
# The same applies to Brazil
ots_create_tidy_data(
  years = c(1962,1963),
  reporters = c("chl", "Peru", "bol"),
  partners = c("arg", "Brazil"),
  sections = c("01", "food"),
  table = "yrpc"
)
#> Warning in ots_create_tidy_data_unmemoised(...): The sections argument will be
#> ignored provided that you requested a table without section_code field.
#> # A tibble: 2,275 x 16
#>     year reporter_iso reporter_fullna… partner_iso partner_fullnam… section_code
#>    <int> <chr>        <chr>            <chr>       <chr>            <chr>       
#>  1  1962 chl          Chile            arg         Argentina        21          
#>  2  1962 chl          Chile            arg         Argentina        20          
#>  3  1962 chl          Chile            arg         Argentina        20          
#>  4  1962 chl          Chile            arg         Argentina        20          
#>  5  1962 chl          Chile            arg         Argentina        20          
#>  6  1962 chl          Chile            arg         Argentina        20          
#>  7  1962 chl          Chile            arg         Argentina        20          
#>  8  1962 chl          Chile            arg         Argentina        20          
#>  9  1962 chl          Chile            arg         Argentina        20          
#> 10  1962 chl          Chile            arg         Argentina        19          
#> # … with 2,265 more rows, and 10 more variables:
#> #   section_fullname_english <chr>, section_shortname_english <chr>,
#> #   section_color <chr>, group_code <chr>, group_fullname_english <chr>,
#> #   product_code <chr>, product_fullname_english <chr>,
#> #   product_shortname_english <chr>, import_value_usd <int>,
#> #   export_value_usd <int>
…
This table accepts different years and reporters just like yrpc.

All the variables from this table are documented at docs.tradestatistics.io.

Product trade at aggregated level (Year - Product Code)

If we want all products traded in 1962:

ots_create_tidy_data(
  years = 1962,
  table = "yc"
)
#> # A tibble: 991 x 22
#>     year section_code section_fullnam… section_shortna… section_color group_code
#>    <int> <chr>        <chr>            <chr>            <chr>         <chr>     
#>  1  1962 19           Arms And Ammuni… Weapons          #1c26b3       93        
#>  2  1962 19           Arms And Ammuni… Weapons          #1c26b3       93        
#>  3  1962 18           Optical, Photog… Instruments      #5c57d9       92        
#>  4  1962 18           Optical, Photog… Instruments      #5c57d9       92        
#>  5  1962 18           Optical, Photog… Instruments      #5c57d9       92        
#>  6  1962 18           Optical, Photog… Instruments      #5c57d9       92        
#>  7  1962 18           Optical, Photog… Instruments      #5c57d9       92        
#>  8  1962 18           Optical, Photog… Instruments      #5c57d9       92        
#>  9  1962 18           Optical, Photog… Instruments      #5c57d9       92        
#> 10  1962 18           Optical, Photog… Instruments      #5c57d9       91        
#> # … with 981 more rows, and 16 more variables: group_fullname_english <chr>,
#> #   product_code <chr>, product_fullname_english <chr>,
#> #   product_shortname_english <chr>, export_value_usd <dbl>,
#> #   import_value_usd <dbl>, pci_fitness_method <dbl>,
#> #   pci_rank_fitness_method <int>, pci_reflections_method <dbl>,
#> #   pci_rank_reflections_method <int>, pci_eigenvalues_method <dbl>,
#> #   pci_rank_eigenvalues_method <int>, top_exporter_iso <chr>,
#> #   top_exporter_trade_value_usd <int>, top_importer_iso <chr>,
#> #   top_importer_trade_value_usd <int>
…
