String matching of official product names and Harmonized System (HS) codes according to the United Nations nomenclature — ots_product_code • tradestatistics
…
      productgroup
      A text string such as "meat", "FISH" or "Dairy".

    Value

    A tibble with all possible matches (no uppercase distinction)
showing the product name, product code and corresponding trade
classification (e.g. HS92 or SITC)

    Examples

ots_product_code(productname = "animals")
#> # A tibble: 55 x 5
#>    commodity_code commodity_fullname_english  group_code group_name type_product
#>    <chr>          <chr>                       <chr>      <chr>      <chr>       
#>  1 010110         Horses, asses, mules and h… 01         Animals; … animals     
#>  2 010190         Horses, asses, mules and h… 01         Animals; … animals     
#>  3 0102           Bovine animals; live        01         Animals; … animals     
#>  4 010210         Bovine animals; live, pure… 01         Animals; … animals     
#>  5 010290         Bovine animals; live, othe… 01         Animals; … animals     
#>  6 010310         Swine; live, pure-bred bre… 01         Animals; … animals     
#>  7 010391         Swine; live, (other than p… 01         Animals; … animals     
#>  8 010392         Swine; live, (other than p… 01         Animals; … animals     
#>  9 0106           Animals, n.e.c. in chapter… 01         Animals; … animals     
#> 10 010631         Animals; live, birds of pr… 01         Animals; … animals     
#> # … with 45 more rows
ots_product_code(productgroup = "fish")
#> # A tibble: 144 x 5
#>    commodity_code commodity_fullname_engl… group_code group_name      type_group
#>    <chr>          <chr>                    <chr>      <chr>           <chr>     
#>  1 0301           Fish; live               03         Fish and crust… fish      
#>  2 030110         Fish; live, ornamental   03         Fish and crust… fish      
#>  3 030191         Fish; live, trout (salm… 03         Fish and crust… fish      
#>  4 030192         Fish; live, eels (angui… 03         Fish and crust… fish      
#>  5 030193         Fish; live, carp         03         Fish and crust… fish      
#>  6 030194         Fish; live, bluefin tun… 03         Fish and crust… fish      
#>  7 030195         Fish; live, southern bl… 03         Fish and crust… fish      
#>  8 030199         Fish; live, n.e.c. in h… 03         Fish and crust… fish      
#>  9 0302           Fish; fresh or chilled … 03         Fish and crust… fish      
#> 10 030211         Fish; trout (salmo trut… 03         Fish and crust… fish      
#> # … with 134 more rows
…
